Severity-yield relationship for LSD in soybean -
…
lsd_combined <- lsd_combined |>
  separate(LOCAL_YEAR, into = c("local", "year"), sep = "_", remove = FALSE)

lsd_combined$trial <- as.integer(factor(lsd_combined$LOCAL_YEAR, levels = unique(lsd_combined$LOCAL_YEAR)))

lsd_combined <- lsd_combined |> 
  select(LOCAL_YEAR, trial, year, local, trat, sev, yld)

write_csv(lsd_combined, "lsd_combined.csv")

See the structure of the data set:

lsd_combined

# A tibble: 1,747 × 7
   LOCAL_YEAR trial year  local  trat   sev   yld
   <chr>      <int> <chr> <chr> <dbl> <dbl> <dbl>
 1 4_2021         1 2021  4         1  28   4208.
 2 4_2021         1 2021  4         1  28   4220.
 3 4_2021         1 2021  4         1  29   4252.
 4 4_2021         1 2021  4         1  27   4433.
 5 4_2021         1 2021  4         2  12   4073.
 6 4_2021         1 2021  4         2  13   4296.
 7 4_2021         1 2021  4         2  13   4105.
 8 4_2021         1 2021  4         2  14   4405.
 9 4_2021         1 2021  4         3   9   4211.
10 4_2021         1 2021  4         3   9.5 4515.
# ℹ 1,737 more rows
…
